prelab2/TimingDiagram.vcd
$date
	Thu Apr 13 11:12:35 2023
$end
$version
	Icarus Verilog
$end
$timescale
	1ns
$end
$scope module testbench $end
$var wire 1 ! z $end
$upscope $end
$scope module testbench $end
$var wire 3 " y [2:0] $end
$upscope $end
$scope module testbench $end
$var reg 2 # s [1:0] $end
$upscope $end
$scope module testbench $end
$var reg 7 $ x [6:0] $end
$upscope $end
$enddefinitions $end
$comment Show the parameter values. $end
$dumpall
$end
#0
$dumpvars
b0 $
b0 #
b0 "
1!
$end
#10
0!
b1 "
b1 $
#20
b1 "
b10 $
#30
b10 "
b11 $
#40
b1 "
b100 $
#50
b10 "
b101 $
#60
b10 "
b110 $
#70
b11 "
b111 $
#80
b1 "
b1000 $
#90
b10 "
b1001 $
#100
b10 "
b1010 $
#110
b11 "
b1011 $
#120
b10 "
b1100 $
#130
b11 "
b1101 $
#140
b11 "
b1110 $
#150
b100 "
b1111 $
#160
b1 "
b10000 $
#170
b10 "
b10001 $
#180
b10 "
b10010 $
#190
b11 "
b10011 $
#200
b10 "
b10100 $
#210
b11 "
b10101 $
#220
b11 "
b10110 $
#230
b100 "
b10111 $
#240
b10 "
b11000 $
#250
b11 "
b11001 $
#260
b11 "
b11010 $
#270
b100 "
b11011 $
#280
b11 "
b11100 $
#290
b100 "
b11101 $
#300
b100 "
b11110 $
#310
b101 "
b11111 $
#320
b1 "
b100000 $
#330
b10 "
b100001 $
#340
b10 "
b100010 $
#350
b11 "
b100011 $
#360
b10 "
b100100 $
#370
b11 "
b100101 $
#380
b11 "
b100110 $
#390
b100 "
b100111 $
#400
b10 "
b101000 $
#410
b11 "
b101001 $
#420
b11 "
b101010 $
#430
b100 "
b101011 $
#440
b11 "
b101100 $
#450
b100 "
b101101 $
#460
b100 "
b101110 $
#470
b101 "
b101111 $
#480
b10 "
b110000 $
#490
b11 "
b110001 $
#500
b11 "
b110010 $
#510
b100 "
b110011 $
#520
b11 "
b110100 $
#530
b100 "
b110101 $
#540
b100 "
b110110 $
#550
b101 "
b110111 $
#560
b11 "
b111000 $
#570
b100 "
b111001 $
#580
b100 "
b111010 $
#590
b101 "
b111011 $
#600
b100 "
b111100 $
#610
b101 "
b111101 $
#620
b101 "
b111110 $
#630
b110 "
b111111 $
#640
b0 "
b0 $
b1 #
#650
1!
b1 "
b1 $
#660
b1 "
b10 $
#670
b10 "
b11 $
#680
b1 "
b100 $
#690
b10 "
b101 $
#700
b10 "
b110 $
#710
0!
b11 "
b111 $
#720
1!
b1 "
b1000 $
#730
b10 "
b1001 $
#740
b10 "
b1010 $
#750
0!
b11 "
b1011 $
#760
1!
b10 "
b1100 $
#770
0!
b11 "
b1101 $
#780
b11 "
b1110 $
#790
1!
b100 "
b1111 $
#800
b1 "
b10000 $
#810
b10 "
b10001 $
#820
b10 "
b10010 $
#830
0!
b11 "
b10011 $
#840
1!
b10 "
b10100 $
#850
0!
b11 "
b10101 $
#860
b11 "
b10110 $
#870
1!
b100 "
b10111 $
#880
b10 "
b11000 $
#890
0!
b11 "
b11001 $
#900
b11 "
b11010 $
#910
1!
b100 "
b11011 $
#920
0!
b11 "
b11100 $
#930
1!
b100 "
b11101 $
#940
b100 "
b11110 $
#950
0!
b101 "
b11111 $
#960
1!
b1 "
b100000 $
#970
b10 "
b100001 $
#980
b10 "
b100010 $
#990
0!
b11 "
b100011 $
#1000
1!
b10 "
b100100 $
#1010
0!
b11 "
b100101 $
#1020
b11 "
b100110 $
#1030
1!
b100 "
b100111 $
#1040
b10 "
b101000 $
#1050
0!
b11 "
b101001 $
#1060
b11 "
b101010 $
#1070
1!
b100 "
b101011 $
#1080
0!
b11 "
b101100 $
#1090
1!
b100 "
b101101 $
#1100
b100 "
b101110 $
#1110
0!
b101 "
b101111 $
#1120
1!
b10 "
b110000 $
#1130
0!
b11 "
b110001 $
#1140
b11 "
b110010 $
#1150
1!
b100 "
b110011 $
#1160
0!
b11 "
b110100 $
#1170
1!
b100 "
b110101 $
#1180
b100 "
b110110 $
#1190
0!
b101 "
b110111 $
#1200
b11 "
b111000 $
#1210
1!
b100 "
b111001 $
#1220
b100 "
b111010 $
#1230
0!
b101 "
b111011 $
#1240
1!
b100 "
b111100 $
#1250
0!
b101 "
b111101 $
#1260
b101 "
b111110 $
#1270
b110 "
b111111 $
#1280
b0 "
0!
b0 $
b10 #
#1290
b1 "
b1 $
#1300
b1 "
b10 $
#1310
b10 "
b11 $
#1320
b1 "
b100 $
#1330
b10 "
b101 $
#1340
b10 "
b110 $
#1350
1!
b11 "
b111 $
#1360
0!
b1 "
b1000 $
#1370
b10 "
b1001 $
#1380
b10 "
b1010 $
#1390
1!
b11 "
b1011 $
#1400
0!
b10 "
b1100 $
#1410
1!
b11 "
b1101 $
#1420
b11 "
b1110 $
#1430
0!
b100 "
b1111 $
#1440
b1 "
b10000 $
#1450
b10 "
b10001 $
#1460
b10 "
b10010 $
#1470
1!
b11 "
b10011 $
#1480
0!
b10 "
b10100 $
#1490
1!
b11 "
b10101 $
#1500
b11 "
b10110 $
#1510
0!
b100 "
b10111 $
#1520
b10 "
b11000 $
#1530
1!
b11 "
b11001 $
#1540
b11 "
b11010 $
#1550
0!
b100 "
b11011 $
#1560
1!
b11 "
b11100 $
#1570
0!
b100 "
b11101 $
#1580
b100 "
b11110 $
#1590
1!
b101 "
b11111 $
#1600
0!
b1 "
b100000 $
#1610
b10 "
b100001 $
#1620
b10 "
b100010 $
#1630
1!
b11 "
b100011 $
#1640
0!
b10 "
b100100 $
#1650
1!
b11 "
b100101 $
#1660
b11 "
b100110 $
#1670
0!
b100 "
b100111 $
#1680
b10 "
b101000 $
#1690
1!
b11 "
b101001 $
#1700
b11 "
b101010 $
#1710
0!
b100 "
b101011 $
#1720
1!
b11 "
b101100 $
#1730
0!
b100 "
b101101 $
#1740
b100 "
b101110 $
#1750
1!
b101 "
b101111 $
#1760
0!
b10 "
b110000 $
#1770
1!
b11 "
b110001 $
#1780
b11 "
b110010 $
#1790
0!
b100 "
b110011 $
#1800
1!
b11 "
b110100 $
#1810
0!
b100 "
b110101 $
#1820
b100 "
b110110 $
#1830
1!
b101 "
b110111 $
#1840
b11 "
b111000 $
#1850
0!
b100 "
b111001 $
#1860
b100 "
b111010 $
#1870
1!
b101 "
b111011 $
#1880
0!
b100 "
b111100 $
#1890
1!
b101 "
b111101 $
#1900
b101 "
b111110 $
#1910
b110 "
b111111 $
#1920
b0 "
0!
b0 $
b11 #
#1930
b1 "
b1 $
#1940
b1 "
b10 $
#1950
b10 "
b11 $
#1960
b1 "
b100 $
#1970
b10 "
b101 $
#1980
b10 "
b110 $
#1990
b11 "
b111 $
#2000
b1 "
b1000 $
#2010
b10 "
b1001 $
#2020
b10 "
b1010 $
#2030
b11 "
b1011 $
#2040
b10 "
b1100 $
#2050
b11 "
b1101 $
#2060
b11 "
b1110 $
#2070
b100 "
b1111 $
#2080
b1 "
b10000 $
#2090
b10 "
b10001 $
#2100
b10 "
b10010 $
#2110
b11 "
b10011 $
#2120
b10 "
b10100 $
#2130
b11 "
b10101 $
#2140
b11 "
b10110 $
#2150
b100 "
b10111 $
#2160
b10 "
b11000 $
#2170
b11 "
b11001 $
#2180
b11 "
b11010 $
#2190
b100 "
b11011 $
#2200
b11 "
b11100 $
#2210
b100 "
b11101 $
#2220
b100 "
b11110 $
#2230
b101 "
b11111 $
#2240
b1 "
b100000 $
#2250
b10 "
b100001 $
#2260
b10 "
b100010 $
#2270
b11 "
b100011 $
#2280
b10 "
b100100 $
#2290
b11 "
b100101 $
#2300
b11 "
b100110 $
#2310
b100 "
b100111 $
#2320
b10 "
b101000 $
#2330
b11 "
b101001 $
#2340
b11 "
b101010 $
#2350
b100 "
b101011 $
#2360
b11 "
b101100 $
#2370
b100 "
b101101 $
#2380
b100 "
b101110 $
#2390
b101 "
b101111 $
#2400
b10 "
b110000 $
#2410
b11 "
b110001 $
#2420
b11 "
b110010 $
#2430
b100 "
b110011 $
#2440
b11 "
b110100 $
#2450
b100 "
b110101 $
#2460
b100 "
b110110 $
#2470
b101 "
b110111 $
#2480
b11 "
b111000 $
#2490
b100 "
b111001 $
#2500
b100 "
b111010 $
#2510
b101 "
b111011 $
#2520
b100 "
b111100 $
#2530
b101 "
b111101 $
#2540
b101 "
b111110 $
#2550
b110 "
b111111 $
